…
Data exploration using NLP technique.

Turn text to tokens.

which_train <- sample(x = c(TRUE, FALSE), size = nrow(df),
                      replace = TRUE, prob = c(0.1, 0.9))

df1 <- df[which_train, ]
df2 <- df[!which_train, ]

tokens <- df1 %>%
  unnest_tokens(output = word, input = post_text)
tokens %>%  dplyr::count(word,sort = TRUE)

## # A tibble: 6,235 x 2
##    word         n
##    <chr>    <int>
##  1 trump    71827
##  2 https    54796
##  3 to       36712
##  4 the      30137
##  5 news     26163
##  6 of       22694
##  7 mueller  19984
##  8 u        19711
##  9 politics 19368
## 10 report   18500
## # … with 6,225 more rows

Remove all the Stopwords

# Remove Stop words 
sw = get_stopwords()
sw

## # A tibble: 175 x 2
##    word      lexicon 
##    <chr>     <chr>   
##  1 i         snowball
##  2 me        snowball
##  3 my        snowball
##  4 myself    snowball
##  5 we        snowball
##  6 our       snowball
##  7 ours      snowball
##  8 ourselves snowball
##  9 you       snowball
## 10 your      snowball
## # … with 165 more rows
…
Find most common most positive and negetive words.

bing_word_counts <- sent_reviews %>%
  filter(!is.na(bing)) %>%
  dplyr::count(word, bing, sort = TRUE)
bing_word_counts

## # A tibble: 507 x 3
##    word        bing         n
##    <chr>       <chr>    <int>
##  1 trump       positive 71827
##  2 emergency   negative 36168
##  3 bomb        negative 16150
##  4 top         positive  9048
##  5 collusion   negative  9045
##  6 lie         negative  8708
##  7 attack      negative  8049
##  8 suspicious  negative  7140
##  9 resignation negative  6318
## 10 explosive   negative  6075
## # … with 497 more rows
…
Similar Data cleaning for titles as Comments

df <- total[,c("num_comments","title")]

df <- df %>% mutate(title = as.character(title))

#count words in each title for future use
df <- df %>% mutate(n= sapply(strsplit(df$title, " "), length)  )

tokens <- df %>%  
  unnest_tokens(output = word, input = title) 

tokens %>%  dplyr::count(word, sort = TRUE)

## # A tibble: 25,682 x 2
##    word      n
##    <chr> <int>
##  1 the   14068
##  2 to     8618
##  3 a      8038
##  4 in     6550
##  5 of     6351
##  6 and    5702
##  7 is     4592
##  8 i      3883
##  9 for    3704
## 10 movie  3577
## # … with 25,672 more rows
…
nums <- cleaned_tokens %>%   
  filter(str_detect(word, "^[0-9]")) %>%   
  select(word) %>% unique()

cleaned_tokens <- cleaned_tokens %>%   
  filter(!word %in% nums$word)

cleaned_tokens <- cleaned_tokens %>%   
  filter(!grepl("[^\u0001-\u007F]+",cleaned_tokens$word))

cleaned_tokens %>% dplyr::count(word, sort = TRUE)

## # A tibble: 24,210 x 2
##    word            n
##    <chr>       <int>
##  1 movie        3577
##  2 ai           2608
##  3 election     1935
##  4 flu          1431
##  5 movies       1327
##  6 coronavirus  1226
##  7 can          1140
##  8 s            1099
##  9 like         1041
## 10 new           971
## # … with 24,200 more rows
length(unique(cleaned_tokens$word))

## [1] 24210

df <- df %>% mutate(title = as.character(title))

#count words in each title for future use
df <- df %>% mutate(n= sapply(strsplit(df$title, " "), length)  )

tokens <- df %>%  
  unnest_tokens(output = word, input = title) 

tokens %>%  dplyr::count(word, sort = TRUE)

## # A tibble: 25,682 x 2
##    word      n
##    <chr> <int>
##  1 the   14068
##  2 to     8618
##  3 a      8038
##  4 in     6550
##  5 of     6351
##  6 and    5702
##  7 is     4592
##  8 i      3883
##  9 for    3704
## 10 movie  3577
## # … with 25,672 more rows
…
nums <- cleaned_tokens %>%   
  filter(str_detect(word, "^[0-9]")) %>%   
  select(word) %>% unique()

cleaned_tokens <- cleaned_tokens %>%   
  filter(!word %in% nums$word)

cleaned_tokens <- cleaned_tokens %>%   
  filter(!grepl("[^\u0001-\u007F]+",cleaned_tokens$word))

cleaned_tokens %>% dplyr::count(word, sort = TRUE)

## # A tibble: 24,210 x 2
##    word            n
##    <chr>       <int>
##  1 movie        3577
##  2 ai           2608
##  3 election     1935
##  4 flu          1431
##  5 movies       1327
##  6 coronavirus  1226
##  7 can          1140
##  8 s            1099
##  9 like         1041
## 10 new           971
## # … with 24,200 more rows

length(unique(cleaned_tokens$word))

## [1] 24210

rare <- cleaned_tokens %>%   
  dplyr::count(word) %>%  
  filter(n<10) %>%  
  select(word) %>% unique() 
rare

## # A tibble: 20,759 x 1
##    word    
##    <chr>   
##  1 ___     
##  2 ____    
##  3 _2020   
##  4 _should_
##  5 a'rollin
##  6 a's     
##  7 a.k.a   
##  8 a.l     
##  9 a.m     
## 10 a:e     
## # … with 20,749 more rows
…
